<?xml version="1.0" standalone="no"?>
<!DOCTYPE svg PUBLIC "-//W3C//DTD SVG 20010904//EN"
 "http://www.w3.org/TR/2001/REC-SVG-20010904/DTD/svg10.dtd">
<svg version="1.0" xmlns="http://www.w3.org/2000/svg"
 width="472.000000pt" height="509.000000pt" viewBox="0 0 472.000000 509.000000"
 preserveAspectRatio="xMidYMid meet">

<g transform="translate(0.000000,509.000000) scale(0.100000,-0.100000)"
fill="#000000" stroke="none">
<path d="M1785 5018 c-66 -38 -124 -73 -128 -78 -5 -4 89 -160 209 -346 119
-187 217 -343 217 -349 0 -5 -456 -800 -1013 -1765 -557 -965 -1024 -1780
-1038 -1810 -53 -114 -27 -246 67 -341 104 -103 -60 -94 1656 -97 1450 -2
1500 -3 1520 -21 41 -38 166 -112 237 -140 120 -48 222 -64 367 -58 240 10
440 101 600 273 302 323 322 803 47 1151 -139 175 -340 289 -580 326 l-77 12
-700 1210 c-385 666 -707 1222 -714 1236 -14 25 -7 37 183 335 109 170 207
325 220 345 l22 37 -130 75 -131 76 -102 -154 -102 -155 -3 155 -3 155 -149 0
-150 0 0 -152 0 -153 -96 145 c-53 80 -99 148 -102 152 -4 3 -61 -25 -127 -64z
m1206 -2332 c305 -527 552 -961 549 -965 -3 -3 -29 -16 -59 -28 -29 -12 -77
-37 -106 -56 l-52 -35 -456 406 -457 407 0 635 c0 531 2 631 13 615 8 -11 263
-451 568 -979z m-885 -292 c-3 -9 -1088 -984 -1236 -1110 l-25 -22 54 -338
c29 -187 55 -349 58 -361 l5 -23 -326 0 c-179 0 -326 3 -326 7 0 3 404 706
897 1562 l898 1556 3 -630 c1 -347 0 -635 -2 -641z m586 -1099 c258 -449 265
-462 277 -540 7 -44 23 -110 36 -147 l23 -68 -309 0 -309 0 0 617 c0 339 4
613 8 608 5 -6 128 -217 274 -470z m-582 -150 l0 -605 -350 0 c-192 0 -350 2
-350 5 0 8 692 1205 696 1205 2 0 4 -272 4 -605z m917 316 l83 -74 -28 -48
c-15 -27 -30 -49 -33 -49 -5 0 -58 89 -167 280 l-26 45 45 -40 c24 -22 81 -73
126 -114z m-1404 61 c-277 -480 -399 -689 -401 -687 -2 2 -15 72 -28 156 -24
147 -24 153 -7 170 30 29 458 409 461 409 1 0 -10 -22 -25 -48z m2366 -37
c206 -49 391 -234 446 -445 24 -90 16 -270 -15 -357 -63 -178 -220 -328 -405
-386 -91 -28 -251 -30 -340 -3 -341 102 -531 459 -420 791 63 187 224 339 420
396 76 22 228 24 314 4z"/>
<path d="M3732 1324 c-21 -14 -22 -22 -22 -160 l0 -144 -143 0 c-180 0 -177 2
-177 -129 0 -137 -8 -131 170 -131 l150 0 0 -150 c0 -178 -6 -170 133 -170
129 0 127 -3 127 178 l0 142 144 0 c177 0 176 -1 176 130 0 131 1 130 -176
130 l-144 0 0 144 c0 177 1 176 -130 176 -61 0 -92 -4 -108 -16z"/>
</g>
</svg>
