<?xml version="1.0" standalone="no"?>
<!DOCTYPE svg PUBLIC "-//W3C//DTD SVG 20010904//EN"
 "http://www.w3.org/TR/2001/REC-SVG-20010904/DTD/svg10.dtd">
<svg version="1.0" xmlns="http://www.w3.org/2000/svg"
 width="509.000000pt" height="510.000000pt" viewBox="0 0 509.000000 510.000000"
 preserveAspectRatio="xMidYMid meet">

<g transform="translate(0.000000,510.000000) scale(0.100000,-0.100000)"
fill="#000000" stroke="none">
<path d="M2373 4586 c-1162 -277 -2132 -511 -2157 -520 -52 -20 -128 -84 -161
-136 -31 -48 -55 -132 -55 -189 0 -24 45 -222 100 -438 l100 -393 0 -1193 c0
-1010 3 -1203 15 -1262 46 -220 220 -394 440 -440 105 -22 3875 -22 3980 0
168 35 316 148 388 295 70 142 68 75 65 1514 -3 1290 -3 1295 -24 1322 -11 15
-33 37 -48 48 -27 21 -29 21 -1684 24 l-1657 4 145 34 c80 18 244 56 365 83
1945 439 2819 643 2845 661 16 11 36 41 46 66 l17 45 -98 372 c-53 205 -106
391 -117 415 -29 61 -99 129 -166 160 -46 21 -74 27 -142 29 -81 2 -189 -23
-2197 -501z m2231 199 c8 -9 19 -30 24 -48 62 -228 134 -509 131 -512 -3 -2
-85 -22 -184 -45 l-179 -41 -254 254 -253 253 318 76 c175 42 332 77 350 77
17 1 38 -6 47 -14z m-789 -475 c137 -137 245 -250 240 -250 -5 0 -162 -35
-348 -77 l-338 -77 -244 244 c-135 135 -245 247 -245 251 0 7 626 157 660 158
20 1 77 -51 275 -249z m-1026 -234 c196 -196 240 -245 225 -250 -41 -12 -640
-146 -654 -146 -8 0 -124 109 -258 243 l-242 242 318 76 c174 42 328 77 342
78 20 1 74 -47 269 -243z m-785 -476 c-3 -3 -155 -39 -337 -81 l-332 -76 -243
241 c-133 132 -237 242 -230 244 7 1 159 38 338 81 l325 78 242 -241 c133
-132 240 -243 237 -246z m-1244 5 c129 -129 232 -236 230 -238 -9 -7 -570
-131 -573 -126 -6 7 -127 493 -127 510 0 28 36 50 112 69 123 30 97 46 358
-215z m53 -950 l-138 -275 -92 0 -93 0 0 268 c0 148 3 272 7 275 3 4 107 7
230 7 l223 0 -137 -275z m1177 270 c0 -3 -61 -127 -135 -275 l-135 -270 -360
0 -360 0 137 275 138 275 357 0 c197 0 358 -2 358 -5z m1040 -5 c0 -5 -60
-129 -132 -275 l-133 -265 -357 0 c-197 0 -358 2 -358 5 0 3 61 127 135 275
l135 270 355 0 c229 0 355 -4 355 -10z m1050 5 c0 -3 -61 -127 -135 -275
l-135 -270 -360 0 -360 0 137 275 138 275 357 0 c197 0 358 -2 358 -5z m720
-270 l0 -275 -330 0 c-181 0 -330 2 -330 5 0 3 61 127 135 275 l135 270 195 0
195 0 0 -275z m-2 -1362 l-3 -798 -22 -41 c-34 -64 -71 -103 -127 -132 l-51
-27 -1950 0 -1950 0 -53 30 c-59 32 -91 66 -125 129 l-22 41 -3 798 -3 797
2156 0 2156 0 -3 -797z"/>
</g>
</svg>
