<?xml version="1.0" standalone="no"?>
<!DOCTYPE svg PUBLIC "-//W3C//DTD SVG 20010904//EN"
 "http://www.w3.org/TR/2001/REC-SVG-20010904/DTD/svg10.dtd">
<svg version="1.0" xmlns="http://www.w3.org/2000/svg"
 width="512.000000pt" height="512.000000pt" viewBox="0 0 512.000000 512.000000"
 preserveAspectRatio="xMidYMid meet">

<g transform="translate(0.000000,512.000000) scale(0.100000,-0.100000)"
fill="#000000" stroke="none">
<path d="M10 2925 l0 -2195 699 0 700 0 8 47 c15 90 8 439 -11 548 -54 308
-161 593 -316 846 l-60 97 0 116 0 115 76 98 c237 303 526 814 729 1291 38 89
73 162 77 162 4 0 33 -17 65 -37 250 -160 605 -206 910 -117 84 24 239 96 296
136 15 11 30 18 32 16 3 -3 39 -83 81 -179 212 -489 509 -1011 733 -1289 l61
-75 0 -123 c0 -120 -1 -125 -29 -165 -15 -23 -51 -82 -78 -132 -220 -397 -328
-882 -281 -1261 l11 -94 704 0 703 0 0 2195 0 2195 -2555 0 -2555 0 0 -2195z
m1433 1888 c3 -10 8 -36 12 -58 18 -109 94 -294 163 -398 l26 -39 -25 -19
c-40 -32 -200 -107 -269 -126 -49 -13 -101 -18 -215 -17 -140 0 -156 2 -242
31 -114 38 -198 85 -287 160 -125 104 -222 256 -265 411 l-20 72 559 0 c524 0
559 -1 563 -17z m1932 -20 c-4 -21 -20 -73 -37 -116 -68 -178 -224 -349 -397
-436 -143 -71 -255 -95 -414 -89 -102 4 -137 10 -217 37 -261 88 -448 274
-536 535 -13 38 -24 78 -24 88 0 17 33 18 816 18 l816 0 -7 -37z m1429 10
c-82 -360 -368 -620 -732 -664 -156 -20 -344 19 -487 101 -119 67 -114 57 -62
142 26 40 60 104 77 141 34 75 80 236 80 280 l0 27 565 0 565 0 -6 -27z
m-4289 -765 c138 -91 279 -146 445 -173 139 -24 326 -16 460 18 52 14 96 24
97 23 1 -1 -47 -100 -106 -221 -212 -433 -446 -809 -624 -1001 l-57 -62 0
-223 0 -224 66 -100 c82 -127 161 -282 209 -409 70 -189 125 -443 125 -578 l0
-58 -410 0 -410 0 0 1591 0 1591 68 -64 c37 -35 99 -84 137 -110z m4305 -1428
l0 -1580 -415 0 -415 0 0 40 c0 69 30 258 59 374 55 217 154 441 277 629 l64
98 0 225 0 225 -64 74 c-128 146 -265 348 -415 609 -82 143 -234 441 -279 547
l-20 46 56 -17 c156 -49 438 -53 601 -10 174 46 330 129 464 246 45 40 83 73
85 73 1 1 2 -710 2 -1579z"/>
<path d="M1515 2458 c-48 -17 -94 -56 -115 -98 -18 -36 -20 -59 -20 -283 l0
-245 33 -48 c36 -54 87 -84 153 -92 l44 -5 0 -528 0 -529 -722 0 c-813 0 -771
3 -836 -76 -46 -56 -54 -98 -50 -263 3 -139 4 -148 31 -193 17 -29 44 -57 71
-73 l43 -25 2414 0 2415 0 48 30 c35 23 53 44 71 83 23 47 25 65 25 192 0 160
-9 201 -52 251 -64 73 -13 68 -813 74 l-720 5 -3 528 -2 527 23 0 c67 0 146
49 180 113 21 40 22 53 22 277 0 232 0 236 -25 280 -14 24 -45 58 -68 75 l-44
30 -1036 2 c-708 1 -1047 -2 -1067 -9z m1945 -378 l0 -90 -895 0 -895 0 0 90
0 90 895 0 895 0 0 -90z m-222 -917 l-3 -528 -662 -3 -663 -2 0 530 0 530 665
0 665 0 -2 -527z m1582 -853 c0 -20 -7 -20 -2260 -20 -2253 0 -2260 0 -2260
20 0 20 7 20 2260 20 2253 0 2260 0 2260 -20z"/>
</g>
</svg>
