<?xml version="1.0" standalone="no"?>
<!DOCTYPE svg PUBLIC "-//W3C//DTD SVG 20010904//EN"
 "http://www.w3.org/TR/2001/REC-SVG-20010904/DTD/svg10.dtd">
<svg version="1.0" xmlns="http://www.w3.org/2000/svg"
 width="512.000000pt" height="512.000000pt" viewBox="0 0 512.000000 512.000000"
 preserveAspectRatio="xMidYMid meet">

<g transform="translate(0.000000,512.000000) scale(0.100000,-0.100000)"
fill="#000000" stroke="none">
<path d="M2910 5101 c-88 -28 -140 -60 -201 -120 -179 -179 -187 -461 -18
-646 97 -105 210 -156 350 -156 190 -1 322 83 434 276 10 17 13 17 51 -3 48
-24 104 -84 136 -144 22 -40 23 -56 26 -255 l3 -213 -1635 -2 c-1633 -3 -1635
-3 -1662 -24 -15 -11 -36 -32 -47 -45 -41 -56 -39 -69 137 -682 91 -318 173
-592 183 -609 10 -17 34 -39 53 -49 32 -18 62 -19 377 -19 l343 0 0 -1055 0
-1055 -183 0 c-158 0 -187 -2 -217 -19 -38 -20 -80 -88 -80 -131 0 -43 42
-111 80 -131 33 -18 92 -19 1520 -19 1428 0 1487 1 1520 19 38 20 80 88 80
131 0 43 -42 111 -80 131 -30 17 -59 19 -217 19 l-183 0 0 1055 0 1055 343 0
c315 0 345 1 377 19 19 10 43 32 53 49 10 17 92 291 183 609 176 613 178 626
137 682 -11 13 -32 34 -47 45 -26 20 -42 21 -376 24 l-348 3 -5 217 c-5 241
-12 277 -73 402 -53 106 -160 212 -272 268 -46 23 -99 44 -118 48 -31 6 -38
13 -64 70 -34 77 -122 172 -195 214 -104 59 -255 77 -365 41z m226 -313 c102
-70 95 -225 -11 -285 -97 -55 -213 -4 -246 107 -43 142 133 263 257 178z
m1195 -1665 l-117 -408 -266 -3 -266 -2 -4 187 c-3 175 -5 191 -26 224 -45 73
24 69 -1092 69 -1116 0 -1047 4 -1092 -69 -21 -33 -23 -49 -26 -224 l-4 -187
-266 2 -266 3 -117 408 -116 407 1887 0 1887 0 -116 -407z m-961 -1528 l0
-1295 -810 0 -810 0 0 1295 0 1295 810 0 810 0 0 -1295z"/>
</g>
</svg>
