<?xml version="1.0" standalone="no"?>
<!DOCTYPE svg PUBLIC "-//W3C//DTD SVG 20010904//EN"
 "http://www.w3.org/TR/2001/REC-SVG-20010904/DTD/svg10.dtd">
<svg version="1.0" xmlns="http://www.w3.org/2000/svg"
 width="512.000000pt" height="512.000000pt" viewBox="0 0 512.000000 512.000000"
 preserveAspectRatio="xMidYMid meet">

<g transform="translate(0.000000,512.000000) scale(0.100000,-0.100000)"
fill="#000000" stroke="none">
<path d="M4165 5094 c-51 -34 -602 -580 -621 -616 -11 -22 -14 -89 -14 -353 0
-264 -3 -331 -14 -353 -8 -15 -238 -250 -511 -522 -273 -272 -505 -512 -516
-532 -43 -82 -9 -187 74 -227 53 -26 90 -26 142 -2 27 13 203 182 535 516 272
273 507 503 522 511 22 11 89 14 352 14 179 0 336 4 349 9 13 5 164 148 335
318 272 269 312 313 318 346 13 76 -16 141 -79 174 -27 14 -80 18 -321 24
-191 5 -292 11 -300 19 -7 7 -13 103 -16 293 -5 256 -7 286 -25 322 -42 84
-133 109 -210 59z"/>
<path d="M2370 4813 c-25 -2 -92 -10 -150 -19 -477 -71 -918 -292 -1260 -634
-752 -752 -874 -1928 -292 -2815 355 -543 915 -901 1556 -996 161 -24 432 -28
581 -10 325 41 654 154 915 316 303 188 557 442 745 745 162 261 275 590 316
915 16 135 14 410 -5 550 -27 196 -120 535 -146 535 -4 0 -27 -9 -51 -20 -35
-15 -66 -20 -146 -20 -57 0 -103 -2 -103 -5 0 -2 14 -39 30 -81 90 -226 125
-425 125 -709 -1 -218 -11 -303 -56 -480 -102 -398 -337 -763 -659 -1022 -339
-273 -717 -414 -1150 -430 -541 -20 -1034 170 -1424 547 -284 275 -469 610
-552 1002 -35 168 -45 485 -20 658 63 429 249 804 551 1105 301 302 676 488
1105 551 156 22 489 15 632 -15 156 -32 286 -72 416 -128 9 -4 12 11 12 55 0
78 16 157 40 204 24 46 32 41 -141 96 -275 90 -582 127 -869 105z"/>
<path d="M2335 3955 c-694 -113 -1195 -697 -1195 -1395 0 -382 142 -724 414
-996 207 -206 444 -333 733 -391 124 -25 406 -25 523 0 579 123 999 539 1122
1110 17 82 22 136 22 272 0 183 -13 276 -61 429 -26 85 -101 256 -112 256 -4
0 -55 -49 -115 -109 l-109 -109 31 -85 c44 -122 62 -230 62 -377 0 -286 -88
-519 -277 -737 -123 -142 -336 -274 -525 -328 -305 -86 -636 -35 -901 138
-605 394 -678 1248 -150 1737 213 197 460 293 753 292 149 0 240 -15 374 -62
l81 -29 113 112 112 112 -66 33 c-78 39 -240 94 -344 117 -107 23 -371 28
-485 10z"/>
</g>
</svg>
