<?xml version="1.0" standalone="no"?>
<!DOCTYPE svg PUBLIC "-//W3C//DTD SVG 20010904//EN"
 "http://www.w3.org/TR/2001/REC-SVG-20010904/DTD/svg10.dtd">
<svg version="1.0" xmlns="http://www.w3.org/2000/svg"
 width="512.000000pt" height="512.000000pt" viewBox="0 0 512.000000 512.000000"
 preserveAspectRatio="xMidYMid meet">

<g transform="translate(0.000000,512.000000) scale(0.100000,-0.100000)"
fill="#000000" stroke="none">
<path d="M1899 5085 c-606 -164 -1123 -534 -1470 -1053 -221 -330 -374 -744
-420 -1134 -18 -159 -7 -586 20 -728 106 -564 356 -1034 752 -1415 725 -697
1796 -907 2731 -534 411 163 801 456 1070 802 265 341 426 703 510 1147 28
148 37 594 15 760 -98 743 -503 1395 -1125 1810 -221 148 -449 254 -724 337
l-123 38 -555 2 -555 2 -126 -34z m872 -195 c57 -6 151 -19 209 -30 102 -19
319 -76 329 -86 17 -16 -45 -24 -201 -24 -176 0 -177 0 -208 -26 -21 -18 -62
-88 -125 -213 -51 -103 -94 -196 -95 -206 -6 -50 2 -77 31 -109 25 -29 51 -42
145 -73 104 -34 112 -39 87 -46 -43 -14 -331 -304 -344 -347 -8 -28 -1 -98 35
-348 25 -171 52 -325 60 -341 8 -15 25 -35 38 -43 30 -19 605 -264 640 -273
18 -5 81 6 182 31 l154 38 71 -47 71 -47 0 -150 0 -149 165 -331 165 -330 0
-153 c0 -84 4 -168 10 -187 6 -22 40 -64 95 -120 l85 -86 -57 -69 c-290 -351
-723 -624 -1175 -739 -219 -56 -334 -70 -583 -70 -221 0 -328 10 -505 50 -125
29 -377 111 -367 120 2 2 23 -3 47 -11 84 -30 154 -12 190 48 18 29 20 52 20
227 l1 195 146 110 c81 61 156 123 167 138 18 24 21 46 24 150 l3 122 160 161
160 161 50 246 50 246 -19 45 c-31 69 -59 79 -236 86 l-150 5 -111 185 c-85
141 -119 189 -145 205 -32 19 -55 20 -303 23 l-267 3 -70 138 c-72 145 -98
176 -156 187 -44 8 -76 0 -112 -31 l-29 -25 -6 38 c-5 29 -22 53 -82 112 -70
70 -75 77 -75 117 0 24 2 43 4 43 2 0 112 16 246 35 l242 35 237 142 236 143
121 200 120 200 120 42 c79 28 126 50 140 67 22 24 124 314 124 349 0 34 -32
86 -64 106 -20 12 -105 31 -251 55 -120 20 -221 39 -223 40 -10 10 262 59 378
69 99 8 304 6 401 -3z m-923 -320 c22 0 355 -60 359 -64 17 -17 -18 -38 -115
-70 -64 -22 -118 -46 -130 -59 -11 -12 -74 -111 -139 -220 l-118 -197 -181
-109 -181 -108 -259 -37 c-142 -20 -280 -41 -305 -47 -50 -11 -91 -46 -108
-92 -14 -36 -14 -281 -1 -327 6 -22 38 -63 86 -111 42 -42 75 -82 73 -88 -2
-6 -60 27 -129 73 l-125 83 -56 170 -56 171 54 108 c110 219 262 424 454 610
172 167 322 274 541 389 l121 63 104 -69 c58 -38 108 -69 111 -69z m1972 -49
c90 -59 280 -208 280 -220 0 -3 -14 -15 -30 -24 -29 -18 -34 -17 -188 13 -86
17 -230 53 -319 82 l-162 51 -168 -42 c-136 -34 -174 -40 -196 -32 -15 6 -27
13 -27 16 0 2 12 29 27 60 l27 55 141 0 140 0 150 74 150 73 45 -25 c25 -14
83 -51 130 -81z m-319 -417 c101 -34 514 -124 571 -124 33 0 77 22 162 79 48
32 63 38 74 28 14 -11 105 -128 150 -194 l22 -31 -169 -57 -168 -56 -184 31
c-101 16 -194 32 -206 35 -15 3 -49 44 -99 118 -42 63 -86 120 -98 128 -15 10
-69 15 -201 19 l-180 5 100 27 c55 14 105 27 111 27 5 1 57 -15 115 -35z m-21
-399 c39 -58 84 -114 101 -124 29 -18 507 -103 573 -103 17 1 125 33 241 71
115 39 212 71 216 71 12 0 87 -175 127 -295 80 -240 112 -444 112 -720 0 -385
-66 -668 -236 -1014 l-86 -173 -34 33 -34 33 0 152 0 153 -167 333 -168 333
-5 187 c-5 182 -6 187 -30 213 -35 39 -287 206 -325 216 -24 7 -68 0 -194 -31
l-162 -40 -227 97 c-125 53 -231 100 -237 105 -5 5 -24 107 -41 226 l-32 217
81 83 82 82 187 0 188 0 70 -105z m-3116 -684 c11 -13 102 -78 201 -144 99
-66 182 -121 184 -124 3 -2 -12 -20 -32 -41 -50 -51 -57 -82 -57 -244 l0 -137
103 -203 c63 -125 112 -209 127 -220 14 -10 96 -32 190 -51 l165 -33 5 -384 5
-385 89 -218 c48 -120 86 -220 84 -223 -7 -6 -161 92 -250 159 -469 354 -784
873 -882 1457 -25 149 -35 353 -25 512 8 129 30 292 46 343 5 18 7 16 16 -10
5 -16 19 -41 31 -54z m871 -328 c75 -145 54 -137 385 -141 l278 -3 102 -172
c57 -95 114 -184 128 -200 33 -35 78 -47 180 -47 45 0 82 -4 82 -9 0 -5 -9
-53 -20 -107 l-20 -99 -166 -166 c-186 -186 -183 -181 -184 -334 l-1 -90 -145
-108 c-80 -59 -154 -122 -164 -140 -17 -28 -20 -51 -20 -166 0 -82 -4 -131 -9
-125 -5 5 -39 83 -75 174 l-66 164 0 426 c0 409 -1 426 -20 458 -27 44 -55 54
-245 92 -88 17 -168 34 -178 36 -10 3 -42 54 -77 125 -60 118 -60 119 -60 206
l0 88 117 117 c65 65 120 118 123 118 3 0 28 -44 55 -97z"/>
</g>
</svg>
