<?xml version="1.0" standalone="no"?>
<!DOCTYPE svg PUBLIC "-//W3C//DTD SVG 20010904//EN"
 "http://www.w3.org/TR/2001/REC-SVG-20010904/DTD/svg10.dtd">
<svg version="1.0" xmlns="http://www.w3.org/2000/svg"
 width="512.000000pt" height="512.000000pt" viewBox="0 0 512.000000 512.000000"
 preserveAspectRatio="xMidYMid meet">

<g transform="translate(0.000000,512.000000) scale(0.100000,-0.100000)"
fill="#000000" stroke="none">
<path d="M2445 5106 c-164 -40 -296 -173 -340 -343 -68 -263 112 -533 384
-576 330 -51 609 256 526 578 -66 252 -318 403 -570 341z"/>
<path d="M2443 3015 c-83 -23 -152 -63 -214 -124 -185 -185 -185 -477 0 -662
185 -185 477 -185 662 0 185 185 185 477 0 662 -118 118 -292 166 -448 124z"/>
<path d="M2460 929 c-74 -14 -171 -68 -231 -129 -186 -185 -183 -490 6 -669
262 -248 689 -125 780 224 41 159 -6 327 -124 445 -113 113 -271 160 -431 129z"/>
</g>
</svg>
