<?xml version="1.0" standalone="no"?>
<!DOCTYPE svg PUBLIC "-//W3C//DTD SVG 20010904//EN"
 "http://www.w3.org/TR/2001/REC-SVG-20010904/DTD/svg10.dtd">
<svg version="1.0" xmlns="http://www.w3.org/2000/svg"
 width="512.000000pt" height="512.000000pt" viewBox="0 0 512.000000 512.000000"
 preserveAspectRatio="xMidYMid meet">

<g transform="translate(0.000000,512.000000) scale(0.100000,-0.100000)"
fill="#000000" stroke="none">
<path d="M1980 5084 c0 -47 31 -148 70 -230 105 -218 337 -449 580 -578 182
-96 349 -136 564 -136 313 0 500 -55 632 -185 66 -66 104 -134 130 -235 25
-98 15 -313 -20 -440 -57 -207 -152 -410 -283 -610 l-76 -115 -13 63 c-26 125
-90 212 -194 261 -47 22 -68 26 -150 26 l-95 0 -130 -61 c-672 -312 -1214
-778 -1515 -1304 -24 -41 -44 -76 -45 -77 -1 -2 -24 19 -52 46 -66 64 -112 74
-293 69 -192 -5 -230 -28 -310 -187 -115 -229 -168 -497 -141 -706 24 -178
109 -369 212 -476 86 -89 210 -100 309 -28 23 17 43 29 44 27 32 -54 68 -94
109 -122 105 -71 8 -67 1568 -64 l1404 3 67 33 c77 38 130 92 166 171 52 112
30 261 -53 359 -78 93 -164 122 -357 122 -76 0 -138 3 -138 7 0 3 23 77 51
162 61 187 130 453 161 622 30 166 32 440 4 539 -56 202 -193 338 -372 372
l-60 12 84 125 c98 146 216 381 267 531 122 356 121 635 -3 875 -53 101 -181
228 -287 282 -171 87 -286 111 -575 123 -198 7 -236 11 -313 34 -98 29 -222
89 -312 149 -79 54 -224 194 -285 277 -57 77 -116 194 -125 251 l-7 39 -109 0
-109 0 0 -26z m1305 -2412 c43 -27 52 -52 64 -192 14 -147 32 -196 89 -227 44
-25 182 -53 262 -53 257 0 341 -240 249 -717 -49 -260 -181 -695 -294 -975 -7
-17 10 -18 274 -18 306 0 329 -3 369 -55 15 -19 22 -42 22 -72 0 -38 -5 -50
-34 -79 l-34 -34 -1391 0 c-1276 0 -1394 1 -1417 16 -44 29 -54 63 -54 181 1
430 188 909 512 1311 193 240 517 510 843 702 78 46 393 207 435 223 31 11 76
6 105 -11z m-2055 -1325 c0 -7 -18 -60 -39 -118 -99 -261 -161 -571 -161 -800
0 -39 -4 -69 -10 -69 -30 0 -118 162 -146 270 -21 78 -23 258 -5 345 26 124
102 328 138 367 13 15 34 18 120 18 79 0 103 -3 103 -13z"/>
<path d="M2670 1993 c-84 -32 -129 -149 -87 -229 55 -105 175 -129 262 -53
113 99 41 291 -109 288 -28 0 -58 -3 -66 -6z"/>
<path d="M2093 1454 c-22 -5 -23 -9 -23 -115 l0 -109 65 0 c61 0 65 -1 65 -23
0 -94 91 -204 226 -275 147 -76 403 -148 614 -172 153 -18 140 -9 140 -95 l0
-75 110 0 110 0 0 89 c0 104 -17 162 -63 209 -50 52 -96 71 -204 82 -365 40
-713 168 -713 262 0 75 -57 161 -133 199 -39 20 -148 33 -194 23z"/>
</g>
</svg>
