<?xml version="1.0" standalone="no"?>
<!DOCTYPE svg PUBLIC "-//W3C//DTD SVG 20010904//EN"
 "http://www.w3.org/TR/2001/REC-SVG-20010904/DTD/svg10.dtd">
<svg version="1.0" xmlns="http://www.w3.org/2000/svg"
 width="512.000000pt" height="513.000000pt" viewBox="0 0 512.000000 513.000000"
 preserveAspectRatio="xMidYMid meet">

<g transform="translate(0.000000,513.000000) scale(0.100000,-0.100000)"
fill="#000000" stroke="none">
<path d="M1420 5124 c-39 -16 -40 -29 -40 -363 l0 -326 146 -220 c81 -121 148
-222 150 -224 2 -2 10 4 19 13 15 14 98 16 880 16 l864 0 12 -21 c8 -15 10
-131 6 -403 -4 -350 -6 -388 -26 -466 -59 -230 -213 -434 -419 -555 -75 -44
-198 -90 -265 -100 -34 -5 -47 -11 -43 -21 4 -10 155 -241 171 -262 1 -1 41
11 89 28 94 33 119 33 174 0 48 -30 42 -55 -38 -155 -38 -48 -70 -91 -70 -96
0 -14 164 -259 172 -256 3 1 72 84 152 185 112 139 152 182 169 182 34 0 690
-234 777 -277 109 -55 231 -178 288 -293 76 -154 75 -146 80 -687 3 -476 3
-482 -17 -502 -20 -20 -32 -21 -251 -21 -217 0 -231 1 -250 20 -18 18 -20 33
-20 195 0 162 -1 175 -19 185 -24 12 -244 14 -239 1 1 -5 107 -164 233 -355
l230 -345 301 -1 c282 0 302 1 318 19 16 17 17 69 14 682 l-3 664 -28 90 c-74
239 -215 435 -405 564 -97 65 -153 88 -627 256 -242 86 -450 163 -462 171 -37
23 -29 59 24 118 100 110 204 298 246 446 46 159 47 182 47 1154 0 755 -2 926
-13 940 -13 18 -63 19 -1163 22 -632 2 -1156 1 -1164 -2z m2024 -326 c13 -19
16 -58 16 -223 0 -165 -3 -204 -16 -223 l-15 -22 -859 0 -859 0 -15 22 c-13
19 -16 58 -16 223 0 165 3 204 16 223 l15 22 859 0 859 0 15 -22z"/>
<path d="M802 4606 c-36 -20 -62 -66 -62 -113 0 -39 26 -81 319 -521 l318
-478 6 -164 c6 -180 25 -279 86 -437 38 -97 126 -239 199 -322 58 -66 66 -101
30 -125 -13 -8 -228 -87 -478 -176 -250 -88 -487 -178 -528 -200 -218 -118
-389 -320 -468 -554 -52 -152 -54 -181 -54 -856 0 -595 1 -628 18 -643 17 -16
165 -17 1926 -17 1049 0 1906 3 1904 8 -1 4 -689 1038 -1528 2297 -1140 1711
-1533 2293 -1553 2303 -36 16 -105 15 -135 -2z m1366 -2383 l74 -26 89 -133
89 -133 0 -105 c0 -114 -9 -136 -56 -136 -20 0 -59 43 -209 233 -158 197 -185
236 -183 262 3 25 10 32 48 47 60 23 63 22 148 -9z m-126 -648 c430 -540 435
-545 526 -545 78 0 121 30 207 140 43 55 79 100 81 100 5 0 644 -958 644 -965
0 -3 -484 -5 -1075 -5 -1062 0 -1075 0 -1095 20 -18 18 -20 33 -20 189 0 141
-3 172 -16 185 -12 13 -39 16 -130 16 -64 0 -124 -5 -135 -10 -18 -10 -19 -23
-19 -185 0 -162 -2 -177 -20 -195 -19 -19 -33 -20 -250 -20 -219 0 -231 1
-251 21 -20 20 -20 26 -17 502 5 541 4 533 80 687 57 115 179 238 288 293 106
52 739 276 775 274 26 -2 72 -55 427 -502z"/>
</g>
</svg>
