<?xml version="1.0" standalone="no"?>
<!DOCTYPE svg PUBLIC "-//W3C//DTD SVG 20010904//EN"
 "http://www.w3.org/TR/2001/REC-SVG-20010904/DTD/svg10.dtd">
<svg version="1.0" xmlns="http://www.w3.org/2000/svg"
 width="512.000000pt" height="513.000000pt" viewBox="0 0 512.000000 513.000000"
 preserveAspectRatio="xMidYMid meet">

<g transform="translate(0.000000,513.000000) scale(0.100000,-0.100000)"
fill="#000000" stroke="none">
<path d="M3460 4970 l0 -150 441 -2 441 -3 -499 -505 -500 -505 -59 53 c-220
198 -548 289 -845 237 -405 -71 -724 -370 -825 -775 -15 -60 -19 -110 -18
-245 1 -154 3 -178 28 -260 117 -391 399 -649 809 -739 l27 -6 0 -410 0 -410
-370 0 -370 0 0 -150 0 -150 370 0 370 0 0 -475 0 -475 150 0 150 0 0 475 0
475 370 0 370 0 0 150 0 150 -370 0 -370 0 0 410 0 410 28 6 c237 52 395 135
548 288 172 172 266 369 295 620 19 163 -12 360 -80 511 l-29 63 507 513 506
512 5 -424 5 -424 150 0 150 0 3 693 2 692 -695 0 -695 0 0 -150z m-687 -1181
c256 -54 489 -290 543 -549 22 -103 14 -281 -16 -370 -80 -239 -272 -420 -506
-480 -95 -25 -260 -27 -354 -4 -244 57 -442 249 -521 504 -30 97 -33 279 -5
380 37 137 138 292 244 375 179 141 392 190 615 144z"/>
</g>
</svg>
