<?xml version="1.0" standalone="no"?>
<!DOCTYPE svg PUBLIC "-//W3C//DTD SVG 20010904//EN"
 "http://www.w3.org/TR/2001/REC-SVG-20010904/DTD/svg10.dtd">
<svg version="1.0" xmlns="http://www.w3.org/2000/svg"
 width="512.000000pt" height="512.000000pt" viewBox="0 0 512.000000 512.000000"
 preserveAspectRatio="xMidYMid meet">

<g transform="translate(0.000000,512.000000) scale(0.100000,-0.100000)"
fill="#000000" stroke="none">
<path d="M3045 5114 c-16 -2 -66 -9 -110 -15 -156 -21 -345 -95 -470 -184
-115 -82 -243 -232 -307 -360 -41 -80 -85 -216 -109 -332 -21 -100 -23 -141
-27 -565 l-4 -458 -369 0 -369 0 0 -460 0 -460 370 0 370 0 0 -1140 0 -1140
460 0 460 0 0 1140 0 1140 354 0 354 0 6 38 c12 73 106 841 106 861 0 21 -1
21 -411 21 l-410 0 3 398 c3 384 4 399 26 453 43 108 123 171 250 198 32 7
167 11 337 11 l285 0 0 410 0 409 -32 6 c-106 18 -686 40 -763 29z"/>
</g>
</svg>
