<?xml version="1.0" standalone="no"?>
<!DOCTYPE svg PUBLIC "-//W3C//DTD SVG 20010904//EN"
 "http://www.w3.org/TR/2001/REC-SVG-20010904/DTD/svg10.dtd">
<svg version="1.0" xmlns="http://www.w3.org/2000/svg"
 width="512.000000pt" height="512.000000pt" viewBox="0 0 512.000000 512.000000"
 preserveAspectRatio="xMidYMid meet">

<g transform="translate(0.000000,512.000000) scale(0.100000,-0.100000)"
fill="#000000" stroke="none">
<path d="M2345 5114 c-16 -2 -70 -9 -120 -15 -369 -45 -758 -190 -1079 -403
-153 -102 -261 -191 -396 -326 -402 -402 -644 -890 -732 -1475 -18 -121 -18
-549 0 -670 61 -405 194 -760 406 -1079 102 -153 191 -261 326 -396 402 -402
890 -644 1475 -732 121 -18 549 -18 670 0 405 61 760 194 1079 406 156 104
262 192 401 331 330 332 555 730 668 1180 60 241 72 338 72 625 0 194 -5 281
-18 363 -9 59 -17 110 -17 112 0 3 -556 5 -1235 5 l-1235 0 2 -507 3 -508 683
-3 c375 -1 682 -5 682 -8 0 -20 -108 -225 -161 -305 -84 -126 -282 -324 -408
-408 -176 -117 -379 -200 -582 -237 -130 -25 -408 -25 -538 0 -313 58 -572
196 -802 425 -140 140 -221 254 -299 415 -105 219 -144 398 -144 656 0 258 39
437 144 656 78 161 159 275 299 415 230 229 489 367 802 425 130 25 408 25
539 0 139 -26 294 -79 424 -145 l114 -59 409 334 c224 184 409 339 411 343 4
12 -140 121 -259 196 -298 189 -626 311 -995 370 -94 16 -517 29 -589 19z"/>
</g>
</svg>
