<?xml version="1.0" standalone="no"?>
<!DOCTYPE svg PUBLIC "-//W3C//DTD SVG 20010904//EN"
 "http://www.w3.org/TR/2001/REC-SVG-20010904/DTD/svg10.dtd">
<svg version="1.0" xmlns="http://www.w3.org/2000/svg"
 width="512.000000pt" height="512.000000pt" viewBox="0 0 512.000000 512.000000"
 preserveAspectRatio="xMidYMid meet">

<g transform="translate(0.000000,512.000000) scale(0.100000,-0.100000)"
fill="#000000" stroke="none">
<path d="M2360 5114 c-202 -24 -306 -41 -425 -71 -912 -228 -1630 -946 -1858
-1858 -55 -222 -72 -365 -72 -625 0 -260 17 -403 72 -625 228 -912 946 -1630
1858 -1858 222 -55 365 -72 625 -72 260 0 403 17 625 72 912 228 1630 946
1858 1858 55 222 72 365 72 625 0 260 -17 403 -72 625 -225 902 -929 1614
-1828 1851 -207 54 -368 75 -610 79 -115 2 -226 1 -245 -1z m416 -275 c1090
-106 1957 -973 2063 -2063 122 -1248 -809 -2373 -2063 -2495 -1053 -103 -2050
548 -2386 1557 -400 1199 248 2492 1448 2892 308 103 625 140 938 109z"/>
<path d="M1363 2688 c-90 -65 -91 -195 -2 -259 l34 -24 1167 0 c1161 0 1167 0
1195 21 15 11 39 41 51 67 29 57 23 112 -15 158 -53 63 29 59 -1240 59 l-1158
0 -32 -22z"/>
</g>
</svg>
