<?xml version="1.0" standalone="no"?>
<!DOCTYPE svg PUBLIC "-//W3C//DTD SVG 20010904//EN"
 "http://www.w3.org/TR/2001/REC-SVG-20010904/DTD/svg10.dtd">
<svg version="1.0" xmlns="http://www.w3.org/2000/svg"
 width="512.000000pt" height="512.000000pt" viewBox="0 0 512.000000 512.000000"
 preserveAspectRatio="xMidYMid meet">

<g transform="translate(0.000000,512.000000) scale(0.100000,-0.100000)"
fill="#000000" stroke="none">
<path d="M2385 5103 c-22 -2 -95 -13 -163 -24 -676 -112 -1304 -517 -1686
-1089 -163 -243 -270 -485 -346 -785 -64 -251 -75 -352 -74 -655 1 -240 3
-279 27 -410 81 -450 253 -837 522 -1175 408 -514 969 -832 1640 -932 170 -25
544 -25 710 1 445 68 852 241 1203 510 274 211 516 493 666 777 55 105 130
279 122 286 -2 2 -30 -3 -62 -11 -307 -78 -694 -106 -971 -71 -630 81 -1140
430 -1510 1033 -457 743 -440 1512 49 2290 32 51 82 126 111 165 29 40 56 78
61 85 6 9 -22 12 -126 10 -73 -1 -151 -3 -173 -5z m-337 -475 c-103 -230 -182
-514 -207 -740 -23 -209 -10 -482 34 -688 72 -345 246 -713 488 -1035 384
-510 873 -821 1453 -924 158 -28 389 -44 522 -37 131 8 128 16 36 -94 -221
-268 -556 -506 -905 -644 -418 -166 -926 -196 -1379 -81 -560 141 -1033 491
-1343 993 -284 459 -393 1026 -301 1567 123 724 565 1314 1229 1641 135 66
363 152 407 154 13 0 7 -21 -34 -112z"/>
</g>
</svg>
