<?xml version="1.0" standalone="no"?>
<!DOCTYPE svg PUBLIC "-//W3C//DTD SVG 20010904//EN"
 "http://www.w3.org/TR/2001/REC-SVG-20010904/DTD/svg10.dtd">
<svg version="1.0" xmlns="http://www.w3.org/2000/svg"
 width="512.000000pt" height="512.000000pt" viewBox="0 0 512.000000 512.000000"
 preserveAspectRatio="xMidYMid meet">

<g transform="translate(0.000000,512.000000) scale(0.100000,-0.100000)"
fill="#000000" stroke="none">
<path d="M371 5104 c-172 -46 -310 -186 -356 -359 -22 -85 -22 -605 0 -690 46
-176 184 -314 360 -360 52 -13 308 -15 2185 -15 1877 0 2133 2 2185 15 176 46
314 184 360 360 22 85 22 605 0 690 -46 176 -184 314 -360 360 -52 13 -307 15
-2190 14 -1827 0 -2138 -2 -2184 -15z m4354 -281 c46 -24 75 -54 101 -103 17
-32 19 -61 19 -320 0 -259 -2 -288 -19 -320 -26 -49 -55 -79 -101 -103 l-40
-22 -2125 0 -2125 0 -40 22 c-46 24 -75 54 -101 103 -17 31 -19 64 -22 297 -2
162 1 276 7 301 13 47 47 98 82 124 66 50 -44 47 2214 45 l2110 -2 40 -22z"/>
<path d="M371 3264 c-172 -46 -310 -186 -356 -359 -22 -85 -22 -605 0 -690 35
-131 128 -252 243 -313 122 -65 50 -62 1422 -62 1086 0 1253 2 1305 15 176 46
314 184 360 360 22 85 22 605 0 690 -46 176 -184 314 -360 360 -86 22 -2530
22 -2614 -1z m2594 -281 c46 -24 75 -54 101 -103 17 -32 19 -61 19 -320 0
-259 -2 -288 -19 -320 -26 -49 -55 -79 -101 -103 l-40 -22 -1245 0 -1245 0
-40 22 c-46 24 -75 54 -101 103 -17 31 -19 64 -22 297 -2 162 1 276 7 301 13
47 47 98 82 124 66 49 21 47 1334 45 l1230 -2 40 -22z"/>
<path d="M4245 3264 c-87 -18 -233 -89 -304 -147 -161 -134 -261 -347 -261
-557 0 -157 65 -340 163 -459 134 -161 347 -261 557 -261 210 0 423 100 557
261 61 75 129 217 148 311 32 163 12 317 -60 463 -76 156 -174 254 -330 330
-146 72 -309 92 -470 59z m258 -269 c181 -47 308 -186 340 -370 49 -285 -223
-557 -508 -508 -197 34 -344 181 -378 378 -52 303 248 578 546 500z"/>
<path d="M371 1424 c-172 -46 -310 -186 -356 -359 -22 -85 -22 -605 0 -690 35
-131 128 -252 243 -313 122 -65 50 -62 1422 -62 1086 0 1253 2 1305 15 176 46
314 184 360 360 22 85 22 605 0 690 -46 176 -184 314 -360 360 -86 22 -2530
22 -2614 -1z m2594 -281 c46 -24 75 -54 101 -103 17 -32 19 -61 19 -320 0
-259 -2 -288 -19 -320 -26 -49 -55 -79 -101 -103 l-40 -22 -1245 0 -1245 0
-40 22 c-46 24 -75 54 -101 103 -17 31 -19 64 -22 297 -2 162 1 276 7 301 13
47 47 98 82 124 66 49 21 47 1334 45 l1230 -2 40 -22z"/>
<path d="M4245 1424 c-87 -18 -233 -89 -304 -147 -161 -134 -261 -347 -261
-557 0 -108 25 -214 75 -315 76 -156 174 -254 330 -330 203 -100 427 -100 630
0 156 76 254 174 330 330 147 298 69 660 -186 872 -75 61 -217 129 -311 148
-94 18 -210 18 -303 -1z m258 -269 c181 -47 308 -186 340 -370 49 -285 -223
-557 -508 -508 -197 34 -344 181 -378 378 -52 303 248 578 546 500z"/>
</g>
</svg>
