<?xml version="1.0" standalone="no"?>
<!DOCTYPE svg PUBLIC "-//W3C//DTD SVG 20010904//EN"
 "http://www.w3.org/TR/2001/REC-SVG-20010904/DTD/svg10.dtd">
<svg version="1.0" xmlns="http://www.w3.org/2000/svg"
 width="512.000000pt" height="512.000000pt" viewBox="0 0 512.000000 512.000000"
 preserveAspectRatio="xMidYMid meet">

<g transform="translate(0.000000,512.000000) scale(0.100000,-0.100000)"
fill="#000000" stroke="none">
<path d="M3810 5096 c-213 -45 -389 -148 -527 -308 -180 -210 -260 -505 -207
-765 9 -43 17 -89 18 -102 1 -22 -24 -30 -658 -217 l-659 -195 -31 29 c-174
161 -442 256 -675 238 -419 -31 -755 -320 -848 -728 -26 -115 -21 -299 10
-420 86 -328 337 -579 665 -665 203 -53 447 -28 637 67 l80 40 348 -348 348
-348 -30 -64 c-57 -122 -74 -208 -74 -375 0 -173 16 -249 82 -390 47 -101 83
-155 158 -236 271 -292 701 -378 1058 -210 304 142 504 422 533 744 48 523
-328 970 -850 1013 -221 18 -486 -68 -655 -212 l-55 -47 -326 326 c-247 247
-324 330 -317 340 150 201 209 368 208 597 0 144 -15 223 -67 352 -14 34 -24
63 -22 65 5 5 1259 373 1270 372 6 0 33 -27 59 -60 90 -111 248 -219 397 -271
144 -50 339 -63 488 -32 360 74 644 361 717 723 23 112 16 326 -13 421 -62
203 -154 344 -305 470 -86 72 -242 152 -352 181 -102 27 -310 35 -405 15z
m305 -271 c243 -52 444 -248 501 -490 21 -93 15 -254 -15 -345 -62 -193 -229
-360 -421 -421 -88 -29 -242 -36 -337 -16 -121 26 -216 79 -314 177 -126 125
-182 246 -195 415 -20 254 130 514 358 624 138 67 281 86 423 56z m-2821
-1341 c217 -56 402 -243 462 -465 21 -78 23 -232 5 -309 -43 -182 -180 -354
-346 -435 -98 -48 -173 -65 -288 -65 -190 0 -323 55 -457 190 -135 135 -190
266 -190 455 0 118 17 192 65 290 97 198 269 318 515 359 42 7 171 -4 234 -20z
m1996 -1920 c215 -54 413 -257 465 -475 8 -35 15 -104 15 -154 0 -116 -20
-198 -72 -298 -88 -169 -252 -296 -434 -337 -63 -14 -215 -14 -284 1 -180 38
-350 171 -435 339 -55 110 -69 171 -69 300 0 99 4 126 28 195 37 107 87 187
167 266 160 158 393 220 619 163z"/>
</g>
</svg>
