<?xml version="1.0" standalone="no"?>
<!DOCTYPE svg PUBLIC "-//W3C//DTD SVG 20010904//EN"
 "http://www.w3.org/TR/2001/REC-SVG-20010904/DTD/svg10.dtd">
<svg version="1.0" xmlns="http://www.w3.org/2000/svg"
 width="512.000000pt" height="510.000000pt" viewBox="0 0 512.000000 510.000000"
 preserveAspectRatio="xMidYMid meet">

<g transform="translate(0.000000,510.000000) scale(0.100000,-0.100000)"
fill="#000000" stroke="none">
<path d="M390 5084 c-30 -8 -80 -26 -110 -41 -72 -35 -188 -151 -223 -223 -61
-126 -57 22 -57 -2270 0 -2292 -4 -2144 57 -2270 35 -72 151 -188 223 -223
124 -59 68 -57 1347 -57 811 0 1188 3 1225 11 183 38 330 176 394 369 17 51
19 113 22 797 l3 743 -155 0 -156 0 -2 -739 -3 -739 -30 -44 c-20 -28 -49 -52
-85 -71 l-54 -27 -1166 2 -1165 3 -47 28 c-31 18 -57 44 -75 75 l-28 47 0
2095 0 2095 28 47 c18 31 44 57 75 75 l47 28 1165 3 1166 2 54 -27 c36 -19 65
-43 85 -71 l30 -44 3 -564 2 -564 156 0 155 0 -3 568 c-4 626 -2 606 -71 736
-65 122 -205 226 -345 255 -37 8 -412 11 -1230 10 -999 0 -1185 -3 -1232 -15z"/>
<path d="M3703 3824 c-54 -58 -99 -109 -101 -114 -2 -4 202 -199 452 -432
l456 -423 -1800 -3 -1800 -2 0 -150 0 -150 1800 -2 1801 -3 -456 -423 c-250
-233 -455 -426 -455 -430 0 -4 46 -55 103 -114 l102 -107 655 611 c360 336
655 614 655 618 0 3 -296 282 -657 618 l-657 611 -98 -105z"/>
</g>
</svg>
