<?xml version="1.0" standalone="no"?>
<!DOCTYPE svg PUBLIC "-//W3C//DTD SVG 20010904//EN"
 "http://www.w3.org/TR/2001/REC-SVG-20010904/DTD/svg10.dtd">
<svg version="1.0" xmlns="http://www.w3.org/2000/svg"
 width="512.000000pt" height="512.000000pt" viewBox="0 0 512.000000 512.000000"
 preserveAspectRatio="xMidYMid meet">

<g transform="translate(0.000000,512.000000) scale(0.100000,-0.100000)"
fill="#000000" stroke="none">
<path d="M2315 5114 c-304 -45 -548 -140 -746 -289 -330 -248 -538 -622 -579
-1044 -13 -130 -12 -659 0 -796 47 -502 334 -935 771 -1164 313 -164 713 -218
1058 -141 604 133 1065 640 1140 1255 6 50 11 199 11 332 l0 242 309 3 c294 3
311 4 338 24 35 25 73 98 73 139 -1 46 -34 109 -71 136 -34 24 -35 24 -346 27
l-312 3 -7 37 c-53 317 -193 590 -414 811 -203 204 -460 343 -750 406 -73 16
-405 29 -475 19z m408 -350 c220 -42 441 -164 602 -335 148 -157 238 -331 289
-561 l6 -28 -1141 0 -1141 0 7 46 c9 65 51 186 93 269 145 292 410 509 721
592 166 44 384 50 564 17z m907 -1513 c0 -346 -19 -451 -118 -646 -229 -452
-708 -690 -1232 -610 -370 56 -692 297 -854 640 -83 175 -106 311 -106 638 l0
237 1155 0 1155 0 0 -259z"/>
<path d="M2025 3298 c-42 -15 -93 -65 -106 -106 -17 -52 -8 -166 17 -199 36
-48 70 -66 131 -71 49 -3 64 0 93 20 61 41 80 81 80 165 0 49 -6 87 -17 110
-31 66 -129 106 -198 81z"/>
<path d="M2827 3296 c-81 -30 -117 -87 -117 -186 0 -106 55 -177 145 -188 61
-6 89 3 135 44 89 80 75 258 -25 315 -44 25 -94 31 -138 15z"/>
<path d="M1469 1464 c-599 -108 -1040 -634 -1039 -1239 1 -147 47 -214 155
-223 58 -5 95 10 136 55 37 40 49 84 49 183 0 396 266 751 651 868 84 26 241
44 343 40 l78 -3 22 -61 c35 -94 73 -152 155 -235 59 -59 95 -85 161 -117 123
-61 192 -75 325 -70 124 5 215 32 312 90 118 71 235 216 280 347 l18 54 145
-6 c93 -4 175 -14 228 -27 326 -79 595 -349 672 -672 11 -46 23 -143 28 -216
9 -142 16 -162 76 -206 39 -30 143 -30 183 0 63 47 73 75 73 210 0 599 -425
1109 -1022 1225 -93 18 -152 19 -1026 18 -739 -1 -942 -4 -1003 -15z m1271
-324 c0 -23 -67 -82 -128 -112 -87 -43 -179 -45 -264 -6 -52 24 -138 98 -138
119 0 5 119 9 265 9 164 0 265 -4 265 -10z"/>
</g>
</svg>
