<?xml version="1.0" standalone="no"?>
<!DOCTYPE svg PUBLIC "-//W3C//DTD SVG 20010904//EN"
 "http://www.w3.org/TR/2001/REC-SVG-20010904/DTD/svg10.dtd">
<svg version="1.0" xmlns="http://www.w3.org/2000/svg"
 width="512.000000pt" height="512.000000pt" viewBox="0 0 512.000000 512.000000"
 preserveAspectRatio="xMidYMid meet">

<g transform="translate(0.000000,512.000000) scale(0.100000,-0.100000)"
fill="#000000" stroke="none">
<path d="M2315 5114 c-374 -56 -642 -178 -872 -397 -140 -134 -147 -156 -82
-258 56 -87 77 -108 115 -115 51 -9 68 1 167 100 200 200 432 310 712 337 377
36 722 -89 970 -352 148 -157 238 -331 289 -561 l6 -28 -841 0 -841 0 -34 -34
c-51 -51 -48 -93 15 -188 27 -42 59 -83 72 -92 21 -14 101 -16 832 -16 l809 0
-4 -292 c-4 -277 -6 -298 -31 -391 -72 -270 -244 -508 -477 -662 -81 -53 -101
-71 -110 -100 -15 -47 -7 -75 39 -144 55 -81 75 -96 126 -96 65 0 218 107 365
254 212 214 335 440 402 743 17 79 21 139 25 390 l5 297 306 3 c306 3 307 3
341 27 37 27 71 91 71 136 0 45 -34 109 -71 136 -34 24 -35 24 -346 27 -172 2
-313 5 -313 8 0 3 -9 50 -20 104 -76 375 -303 711 -627 928 -136 92 -343 178
-523 217 -73 16 -405 29 -475 19z"/>
<path d="M802 4596 c-36 -20 -62 -66 -62 -113 0 -37 16 -66 143 -258 l144
-215 -14 -63 c-24 -115 -33 -270 -33 -562 0 -330 10 -466 45 -613 134 -558
558 -967 1128 -1091 115 -25 333 -45 400 -37 l47 5 55 -82 55 -82 -612 -5
-613 -6 -96 -26 c-253 -69 -453 -186 -616 -362 -209 -224 -324 -496 -340 -808
-5 -108 -3 -134 11 -173 49 -126 227 -142 298 -26 18 29 23 57 29 170 4 75 12
156 18 181 76 322 317 581 632 678 84 26 240 44 343 40 l79 -3 18 -53 c50
-147 177 -291 320 -361 46 -22 111 -48 144 -56 76 -19 222 -19 305 1 156 36
308 143 400 283 15 22 24 10 329 -447 291 -438 316 -472 354 -487 90 -36 177
24 177 124 0 35 -44 105 -417 668 -229 345 -450 676 -490 735 -40 59 -79 117
-86 130 -7 13 -443 670 -971 1461 -697 1046 -966 1442 -986 1452 -35 18 -107
19 -138 1z m1065 -1846 c278 -418 504 -762 502 -764 -8 -8 -184 23 -251 44
-351 109 -639 397 -748 748 -38 121 -50 242 -50 495 0 230 1 237 20 237 15 0
137 -176 527 -760z m873 -1610 c0 -23 -67 -82 -126 -111 -124 -61 -268 -37
-363 61 -23 23 -41 46 -41 51 0 5 119 9 265 9 164 0 265 -4 265 -10z"/>
<path d="M2827 3296 c-80 -29 -117 -88 -117 -183 1 -114 57 -183 156 -191 127
-11 213 114 175 254 -27 99 -123 153 -214 120z"/>
<path d="M3535 1431 c-34 -15 -57 -49 -62 -93 -4 -40 0 -51 63 -146 62 -95 72
-106 128 -134 184 -93 339 -246 428 -423 31 -60 74 -193 83 -255 3 -25 10 -98
14 -162 7 -106 10 -120 36 -153 68 -90 199 -86 269 9 18 23 22 45 24 143 16
533 -341 1034 -857 1202 -68 22 -94 25 -126 12z"/>
</g>
</svg>
