<?xml version="1.0" standalone="no"?>
<!DOCTYPE svg PUBLIC "-//W3C//DTD SVG 20010904//EN"
 "http://www.w3.org/TR/2001/REC-SVG-20010904/DTD/svg10.dtd">
<svg version="1.0" xmlns="http://www.w3.org/2000/svg"
 width="512.000000pt" height="512.000000pt" viewBox="0 0 512.000000 512.000000"
 preserveAspectRatio="xMidYMid meet">

<g transform="translate(0.000000,512.000000) scale(0.100000,-0.100000)"
fill="#000000" stroke="none">
<path d="M203 4670 c-86 -18 -140 -66 -162 -145 -15 -55 -15 -3274 0 -3328 13
-49 63 -105 114 -128 38 -18 90 -19 908 -19 l867 0 0 -225 c0 -248 -5 -277
-72 -380 -57 -91 -44 -184 33 -230 33 -19 55 -20 649 -23 667 -3 681 -2 725
50 52 62 51 121 -6 209 -60 94 -71 151 -77 387 l-4 212 863 0 c602 0 876 3
904 11 52 15 119 82 134 134 8 29 11 507 11 1671 0 1441 -2 1637 -15 1675 -20
55 -49 86 -105 113 l-45 21 -2340 1 c-1287 1 -2359 -2 -2382 -6z m4617 -1450
l0 -1180 -2260 0 -2260 0 0 1180 0 1180 2260 0 2260 0 0 -1180z m0 -1680 l0
-220 -2260 0 -2260 0 0 220 0 220 2260 0 2260 0 0 -220z m-1910 -804 c0 -60
22 -214 36 -250 6 -15 -28 -16 -383 -16 l-390 0 13 52 c8 29 14 103 14 165 l0
113 355 0 355 0 0 -64z"/>
<path d="M2440 4156 c-112 -29 -171 -63 -257 -147 -98 -96 -148 -202 -160
-335 -13 -162 43 -313 161 -429 113 -111 221 -155 382 -155 158 0 270 48 382
164 110 113 152 218 152 378 0 233 -142 430 -366 509 -77 27 -219 34 -294 15z
m203 -350 c43 -17 93 -76 108 -125 55 -185 -180 -332 -319 -199 -48 47 -62 79
-62 143 0 31 6 68 14 83 16 29 69 83 101 100 28 16 119 15 158 -2z"/>
<path d="M2035 3140 c-136 -19 -236 -69 -336 -169 -64 -63 -85 -94 -127 -181
-72 -148 -122 -370 -122 -547 l0 -53 134 0 134 0 7 93 c27 362 141 561 335
584 46 5 53 3 138 -50 268 -170 520 -165 784 14 73 50 119 52 206 8 136 -68
218 -240 242 -512 5 -56 9 -110 10 -119 0 -16 13 -18 137 -18 l136 0 -7 103
c-20 310 -100 530 -246 678 -112 113 -242 169 -398 172 -82 1 -110 -9 -227
-84 -111 -71 -169 -91 -260 -90 -87 0 -135 17 -245 86 -136 86 -184 100 -295
85z"/>
<path d="M2469 1631 c-33 -33 -39 -45 -39 -82 0 -111 113 -176 201 -116 43 29
59 60 59 116 0 37 -5 49 -39 82 -35 35 -44 39 -91 39 -47 0 -56 -4 -91 -39z"/>
</g>
</svg>
